(footprint "LED-3.2x1.6mm-ThroughBoard"
	(version 20240108)
	(generator "pcbnew")
	(generator_version "8.0")
	(layer "F.Cu")
	(property "Reference" "REF**"
		(at 0 0 0)
		(unlocked yes)
		(layer "F.SilkS")
		(uuid "63916ec4-0427-42e5-81dd-297ef3062a25")
		(effects
			(font
				(size 1 1)
				(thickness 0.15)
			)
		)
	)
	(property "Value" "LED-3.2x1.6mm-ThroughBoard"
		(at 0 -0.75 0)
		(unlocked yes)
		(layer "F.Fab")
		(uuid "7b86be1f-0df0-4c38-8d0c-7c28baf2d7cb")
		(effects
			(font
				(size 1 1)
				(thickness 0.15)
			)
		)
	)
	(property "Footprint" ""
		(at 0 -10.5 0)
		(unlocked yes)
		(layer "F.Fab")
		(hide yes)
		(uuid "9764eba6-c6e3-4f2f-8669-8104595e84cb")
		(effects
			(font
				(size 1 1)
				(thickness 0.15)
			)
		)
	)
	(property "Datasheet" ""
		(at 0 -10.5 0)
		(unlocked yes)
		(layer "F.Fab")
		(hide yes)
		(uuid "504ec10a-f6dc-4fef-a607-6b52397f59ab")
		(effects
			(font
				(size 1 1)
				(thickness 0.15)
			)
		)
	)
	(property "Description" ""
		(at 0 -10.5 0)
		(unlocked yes)
		(layer "F.Fab")
		(hide yes)
		(uuid "a1ce2307-70b1-4ac0-9562-86c743ed4646")
		(effects
			(font
				(size 1 1)
				(thickness 0.15)
			)
		)
	)
	(attr smd)
	(fp_line
		(start -2.5 -1)
		(end -2.5 1)
		(stroke
			(width 0.12)
			(type default)
		)
		(layer "F.SilkS")
		(uuid "7c08026e-aefc-48b3-9eda-316949d4edeb")
	)
	(fp_line
		(start -2.5 1)
		(end -1.25 1)
		(stroke
			(width 0.12)
			(type default)
		)
		(layer "F.SilkS")
		(uuid "51a4f10b-7105-41c1-9ae2-08f358d26819")
	)
	(fp_line
		(start -1.25 -1)
		(end -2.5 -1)
		(stroke
			(width 0.12)
			(type default)
		)
		(layer "F.SilkS")
		(uuid "0afcc9bc-5a2a-4d4c-9c49-271d4852bb60")
	)
	(fp_line
		(start 1 -1.5)
		(end 1.5 -1.5)
		(stroke
			(width 0.12)
			(type default)
		)
		(layer "F.SilkS")
		(uuid "e763e9d6-7c55-41ac-8968-5c9786f623e9")
	)
	(fp_line
		(start 1.25 1)
		(end 2.5 1)
		(stroke
			(width 0.12)
			(type default)
		)
		(layer "F.SilkS")
		(uuid "3ddbf3ed-c968-4859-b6e4-ed057719d3a1")
	)
	(fp_line
		(start 1.5 -1.25)
		(end 1.5 -1.75)
		(stroke
			(width 0.12)
			(type default)
		)
		(layer "F.SilkS")
		(uuid "a76100e3-5953-48fc-93a3-a400fd2767da")
	)
	(fp_line
		(start 2.5 -1)
		(end 1.25 -1)
		(stroke
			(width 0.12)
			(type default)
		)
		(layer "F.SilkS")
		(uuid "068ca301-9612-4a6d-8939-846c85eb6d39")
	)
	(fp_line
		(start 2.5 1)
		(end 2.5 -1)
		(stroke
			(width 0.12)
			(type default)
		)
		(layer "F.SilkS")
		(uuid "7779627e-4f41-4d19-aeb2-42fbe8746bd2")
	)
	(fp_line
		(start -0.9 1)
		(end -0.9 -1)
		(stroke
			(width 0.05)
			(type default)
		)
		(layer "Edge.Cuts")
		(uuid "8f043280-43ed-4e39-8c2c-8cfca1f83266")
	)
	(fp_line
		(start 0.9 -1)
		(end 0.9 1)
		(stroke
			(width 0.05)
			(type default)
		)
		(layer "Edge.Cuts")
		(uuid "308d3321-50fb-4d25-b8ea-4b05c7b3b601")
	)
	(fp_arc
		(start -0.9 -1)
		(mid 0 -1.9)
		(end 0.9 -1)
		(stroke
			(width 0.05)
			(type default)
		)
		(layer "Edge.Cuts")
		(uuid "636ae9f9-ebb3-49b0-831a-cb11af08996f")
	)
	(fp_arc
		(start 0.9 1)
		(mid 0 1.9)
		(end -0.9 1)
		(stroke
			(width 0.05)
			(type default)
		)
		(layer "Edge.Cuts")
		(uuid "9957eb29-e963-47e8-ac17-87987eae7794")
	)
	(fp_line
		(start -2.5 -1)
		(end -2.5 1)
		(stroke
			(width 0.05)
			(type default)
		)
		(layer "F.CrtYd")
		(uuid "5076e107-36c4-42cd-a835-fce18318a50b")
	)
	(fp_line
		(start -2.5 -1)
		(end -1.25 -1)
		(stroke
			(width 0.05)
			(type default)
		)
		(layer "F.CrtYd")
		(uuid "60b1af5d-50b6-41ef-be5b-8bf626c29843")
	)
	(fp_line
		(start -2.5 1)
		(end -1.25 1)
		(stroke
			(width 0.05)
			(type default)
		)
		(layer "F.CrtYd")
		(uuid "5a160e83-b7d9-487d-8995-c9042db3cea9")
	)
	(fp_line
		(start 1.25 1)
		(end 2.5 1)
		(stroke
			(width 0.05)
			(type default)
		)
		(layer "F.CrtYd")
		(uuid "87eeac1d-3077-4a46-9644-53fa0f9cd140")
	)
	(fp_line
		(start 2.5 -1)
		(end 1.25 -1)
		(stroke
			(width 0.05)
			(type default)
		)
		(layer "F.CrtYd")
		(uuid "3c2b8c65-8cdf-4764-876b-c8a73e054fe1")
	)
	(fp_line
		(start 2.5 1)
		(end 2.5 -1)
		(stroke
			(width 0.05)
			(type default)
		)
		(layer "F.CrtYd")
		(uuid "92cb17aa-3146-419d-8903-7d8f5e623549")
	)
	(fp_arc
		(start -1.25 -1)
		(mid 0 -2.25)
		(end 1.25 -1)
		(stroke
			(width 0.05)
			(type default)
		)
		(layer "F.CrtYd")
		(uuid "c14982a0-3c40-40c1-89b3-a7d2e9e45f46")
	)
	(fp_arc
		(start 1.25 1)
		(mid 0 2.25)
		(end -1.25 1)
		(stroke
			(width 0.05)
			(type default)
		)
		(layer "F.CrtYd")
		(uuid "67dacecd-db6c-4774-aa82-a83bb18c763f")
	)
	(fp_text user "K"
		(at 2.5 0 0)
		(unlocked yes)
		(layer "F.SilkS")
		(uuid "7865e20e-2c44-438c-bae5-d6807d898bad")
		(effects
			(font
				(size 0.8 0.8)
				(thickness 0.15)
				(bold yes)
			)
			(justify left)
		)
	)
	(fp_text user "${REFERENCE}"
		(at 0 0.75 0)
		(unlocked yes)
		(layer "F.Fab")
		(uuid "9f1f654e-fc9d-4f09-a950-2e809db37890")
		(effects
			(font
				(size 1 1)
				(thickness 0.15)
			)
		)
	)
	(pad "1" smd roundrect
		(at 1.75 0 180)
		(size 1 1.6)
		(layers "F.Cu" "F.Paste" "F.Mask")
		(roundrect_rratio 0.25)
		(thermal_bridge_angle 45)
		(uuid "cb574b09-a3bc-4098-b557-40bb863da02c")
	)
	(pad "2" smd roundrect
		(at -1.75 0 180)
		(size 1 1.6)
		(layers "F.Cu" "F.Paste" "F.Mask")
		(roundrect_rratio 0.25)
		(thermal_bridge_angle 45)
		(uuid "a0db8e36-b1dd-4855-b1b6-39ac49b8a3af")
	)
	(model "../..//kicad-lib/knob.3dshapes/Phototransistor-1206.step"
		(offset
			(xyz 0 0 0.35)
		)
		(scale
			(xyz 1 1 1)
		)
		(rotate
			(xyz 90 0 180)
		)
	)
)